pic/6_2_weitere_pulsmuster/6_2_1_stromform/carrier_grob/ALL0001/F0001CH3.CSV

Record Length,2.500000e+03,,  -0.018800000000,  -8.00000,
Sample Interval,1.000000e-05,,  -0.018790000000, -16.00000,
Trigger Point,1.880000000000e+03,,  -0.018780000000, -16.00000,
,,,  -0.018770000000, -16.00000,
,,,  -0.018760000000, -16.00000,
,,,  -0.018750000000,  -8.00000,
Source,CH3,,  -0.018740000000,  -8.00000,
Vertical Units,V,,  -0.018730000000, -16.00000,
Vertical Scale,2.000000e+02,,  -0.018720000000, -16.00000,
Vertical Offset,-4.800000e+01,,  -0.018710000000, -16.00000,
Horizontal Units,s,,  -0.018700000000, -16.00000,
Horizontal Scale,2.500000e-03,,  -0.018690000000,  -8.00000,
Pt Fmt,Y,,  -0.018680000000,  -8.00000,
Yzero,0.000000e+00,,  -0.018670000000, -16.00000,
Probe Atten,1.000000e+02,,  -0.018660000000, -16.00000,
Firmware Version,FV:v10.21,,  -0.018650000000,  -8.00000,
,,,-00.018640000000, -16.00000,
,,,-00.018630000000, -16.00000,
,,,-00.018620000000, -16.00000,
,,,-00.018610000000, -16.00000,
,,,-00.018600000000, -16.00000,
,,,-00.018590000000, -16.00000,
,,,-00.018580000000, -16.00000,
,,,-00.018570000000, -16.00000,
,,,-00.018560000000, -16.00000,
,,,-00.018550000000,  -8.00000,
,,,-00.018540000000, -16.00000,
,,,-00.018530000000, -16.00000,
,,,-00.018520000000, -16.00000,
,,,-00.018510000000, -16.00000,
,,,-00.018500000000, -16.00000,
,,,-00.018490000000,  -8.00000,
,,,-00.018480000000,  -8.00000,
,,,-00.018470000000, -16.00000,
,,,-00.018460000000, -16.00000,
,,,-00.018450000000, -16.00000,
,,,-00.018440000000, -24.00000,
,,,-00.018430000000, -16.00000,
,,,-00.018420000000, -16.00000,
,,,-00.018410000000, -16.00000,
,,,-00.018400000000, -16.00000,
,,,-00.018390000000, -16.00000,
,,,-00.018380000000, -16.00000,
,,,-00.018370000000, -16.00000,
,,,-00.018360000000, -16.00000,
,,,-00.018350000000, -16.00000,
,,,-00.018340000000, -16.00000,
,,,-00.018330000000, -16.00000,
,,,-00.018320000000, -16.00000,
,,,-00.018310000000, -16.00000,
,,,-00.018300000000, -16.00000,
,,,-00.018290000000, -24.00000,
,,,-00.018280000000, -16.00000,
,,,-00.018270000000,   0.00000,
,,,-00.018260000000, 704.00000,
,,,-00.018250000000, 760.00000,
,,,-00.018240000000, 768.00000,
,,,-00.018230000000, 648.00000,
,,,-00.018220000000,  16.00000,
,,,-00.018210000000, -24.00000,
,,,-00.018200000000, -16.00000,
,,,-00.018190000000, -24.00000,
,,,-00.018180000000, -24.00000,
,,,-00.018170000000, -24.00000,
,,,-00.018160000000, -24.00000,
,,,-00.018150000000, -24.00000,
,,,-00.018140000000, -24.00000,
,,,-00.018130000000, -24.00000,
,,,-00.018120000000, -24.00000,
,,,-00.018110000000, -24.00000,
,,,-00.018100000000, -24.00000,
,,,-00.018090000000, -24.00000,
,,,-00.018080000000, -32.00000,
,,,-00.018070000000, -24.00000,
,,,-00.018060000000, -32.00000,
,,,-00.018050000000, -32.00000,
,,,-00.018040000000, -24.00000,
,,,-00.018030000000, -40.00000,
,,,-00.018020000000, -32.00000,
,,,-00.018010000000, -24.00000,
,,,-00.018000000000, -40.00000,
,,,-00.017990000000, -32.00000,
,,,-00.017980000000, -32.00000,
,,,-00.017970000000, -40.00000,
,,,-00.017960000000, -32.00000,
,,,-00.017950000000, -40.00000,
,,,-00.017940000000, -40.00000,
,,,-00.017930000000, -32.00000,
,,,-00.017920000000, -40.00000,
,,,-00.017910000000, -40.00000,
,,,-00.017900000000, -40.00000,
,,,-00.017890000000, -40.00000,
,,,-00.017880000000, -40.00000,
,,,-00.017870000000, -40.00000,
,,,-00.017860000000, -40.00000,
,,,-00.017850000000, -40.00000,
,,,-00.017840000000, -40.00000,
,,,-00.017830000000, -40.00000,
,,,-00.017820000000, -40.00000,
,,,-00.017810000000, -48.00000,
,,,-00.017800000000, -40.00000,
,,,-00.017790000000, -40.00000,
,,,-00.017780000000, -40.00000,
,,,-00.017770000000, -40.00000,
,,,-00.017760000000, -48.00000,
,,,-00.017750000000, -40.00000,
,,,-00.017740000000, -48.00000,
,,,-00.017730000000, -40.00000,
,,,-00.017720000000, -48.00000,
,,,-00.017710000000, -48.00000,
,,,-00.017700000000, -48.00000,
,,,-00.017690000000, -48.00000,
,,,-00.017680000000, -48.00000,
,,,-00.017670000000, -48.00000,
,,,-00.017660000000, -48.00000,
,,,-00.017650000000, -48.00000,
,,,-00.017640000000, -48.00000,
,,,-00.017630000000, -48.00000,
,,,-00.017620000000, -48.00000,
,,,-00.017610000000, -48.00000,
,,,-00.017600000000, -48.00000,
,,,-00.017590000000, -56.00000,
,,,-00.017580000000, -56.00000,
,,,-00.017570000000, -56.00000,
,,,-00.017560000000, -56.00000,
,,,-00.017550000000, -56.00000,
,,,-00.017540000000, -56.00000,
,,,-00.017530000000, -56.00000,
,,,-00.017520000000, -48.00000,
,,,-00.017510000000, -56.00000,
,,,-00.017500000000, -56.00000,
,,,-00.017490000000, -56.00000,
,,,-00.017480000000, -56.00000,
,,,-00.017470000000, -56.00000,
,,,-00.017460000000, -56.00000,
,,,-00.017450000000, -64.00000,
,,,-00.017440000000, -64.00000,
,,,-00.017430000000, -64.00000,
,,,-00.017420000000, -56.00000,
,,,-00.017410000000, -64.00000,
,,,-00.017400000000, -56.00000,
,,,-00.017390000000, -64.00000,
,,,-00.017380000000, -64.00000,
,,,-00.017370000000, -64.00000,
,,,-00.017360000000, -56.00000,
,,,-00.017350000000, -64.00000,
,,,-00.017340000000, -56.00000,
,,,-00.017330000000, -64.00000,
,,,-00.017320000000, -64.00000,
,,,-00.017310000000, -64.00000,
,,,-00.017300000000, -64.00000,
,,,-00.017290000000, -64.00000,
,,,-00.017280000000, -64.00000,
,,,-00.017270000000, -64.00000,
,,,-00.017260000000, -64.00000,
,,,-00.017250000000, -64.00000,
,,,-00.017240000000, -72.00000,
,,,-00.017230000000, -64.00000,
,,,-00.017220000000, -72.00000,
,,,-00.017210000000, -72.00000,
,,,-00.017200000000, -72.00000,
,,,-00.017190000000, -72.00000,
,,,-00.017180000000, -72.00000,
,,,-00.017170000000, -72.00000,
,,,-00.017160000000, -72.00000,
,,,-00.017150000000, -64.00000,
,,,-00.017140000000, -72.00000,
,,,-00.017130000000, -72.00000,
,,,-00.017120000000, -72.00000,
,,,-00.017110000000, -72.00000,
,,,-00.017100000000, -72.00000,
,,,-00.017090000000, -72.00000,
,,,-00.017080000000, -72.00000,
,,,-00.017070000000, -72.00000,
,,,-00.017060000000, -72.00000,
,,,-00.017050000000, -72.00000,
,,,-00.017040000000, -80.00000,
,,,-00.017030000000, -72.00000,
,,,-00.017020000000, -80.00000,
,,,-00.017010000000, -80.00000,
,,,-00.017000000000, -80.00000,
,,,-00.016990000000, -80.00000,
,,,-00.016980000000, -88.00000,
,,,-00.016970000000, -88.00000,
,,,-00.016960000000, -88.00000,
,,,-00.016950000000, -80.00000,
,,,-00.016940000000, -80.00000,
,,,-00.016930000000, -88.00000,
,,,-00.016920000000, -88.00000,
,,,-00.016910000000, -88.00000,
,,,-00.016900000000, -88.00000,
,,,-00.016890000000, -88.00000,
,,,-00.016880000000, -96.00000,
,,,-00.016870000000, -96.00000,
,,,-00.016860000000, -96.00000,
,,,-00.016850000000, -96.00000,
,,,-00.016840000000, -96.00000,
,,,-00.016830000000, -96.00000,
,,,-00.016820000000, -96.00000,
,,,-00.016810000000, -96.00000,
,,,-00.016800000000, -96.00000,
,,,-00.016790000000, -96.00000,
,,,-00.016780000000, -96.00000,
,,,-00.016770000000, -96.00000,
,,,-00.016760000000,-104.00000,
,,,-00.016750000000,-104.00000,
,,,-00.016740000000,-104.00000,
,,,-00.016730000000,-104.00000,
,,,-00.016720000000,-104.00000,
,,,-00.016710000000,-104.00000,
,,,-00.016700000000,-104.00000,
,,,-00.016690000000, 520.00000,
,,,-00.016680000000, 680.00000,
,,,-00.016670000000, 680.00000,
,,,-00.016660000000, 680.00000,
,,,-00.016650000000, 688.00000,
,,,-00.016640000000, 680.00000,
,,,-00.016630000000, 680.00000,
,,,-00.016620000000, 680.00000,
,,,-00.016610000000, 680.00000,
,,,-00.016600000000, 680.00000,
,,,-00.016590000000, 672.00000,
,,,-00.016580000000, 680.00000,
,,,-00.016570000000, 672.00000,
,,,-00.016560000000, 672.00000,
,,,-00.016550000000, 672.00000,
,,,-00.016540000000, 672.00000,
,,,-00.016530000000, 672.00000,
,,,-00.016520000000, 672.00000,
,,,-00.016510000000, 672.00000,
,,,-00.016500000000, 672.00000,
,,,-00.016490000000, 672.00000,
,,,-00.016480000000, 672.00000,
,,,-00.016470000000, 672.00000,
,,,-00.016460000000, 672.00000,
,,,-00.016450000000, 168.00000,
,,,-00.016440000000,-112.00000,
,,,-00.016430000000,-128.00000,
,,,-00.016420000000,-128.00000,
,,,-00.016410000000,-128.00000,
,,,-00.016400000000,-128.00000,
,,,-00.016390000000,-128.00000,
,,,-00.016380000000,-128.00000,
,,,-00.016370000000,-128.00000,
,,,-00.016360000000,-128.00000,
,,,-00.016350000000,-128.00000,
,,,-00.016340000000,-136.00000,
,,,-00.016330000000,-128.00000,
,,,-00.016320000000,-128.00000,
,,,-00.016310000000,-136.00000,
,,,-00.016300000000,-128.00000,
,,,-00.016290000000,-136.00000,
,,,-00.016280000000,-136.00000,
,,,-00.016270000000,-136.00000,
,,,-00.016260000000,-136.00000,
,,,-00.016250000000,-136.00000,
,,,-00.016240000000,-136.00000,
,,,-00.016230000000,-136.00000,
,,,-00.016220000000,-136.00000,
,,,-00.016210000000,-136.00000,
,,,-00.016200000000,-136.00000,
,,,-00.016190000000,-136.00000,
,,,-00.016180000000,-136.00000,
,,,-00.016170000000,-136.00000,
,,,-00.016160000000,-144.00000,
,,,-00.016150000000,-136.00000,
,,,-00.016140000000,-136.00000,
,,,-00.016130000000,-144.00000,
,,,-00.016120000000,-144.00000,
,,,-00.016110000000,-144.00000,
,,,-00.016100000000,-144.00000,
,,,-00.016090000000,-144.00000,
,,,-00.016080000000,-144.00000,
,,,-00.016070000000,-144.00000,
,,,-00.016060000000,-144.00000,
,,,-00.016050000000,-144.00000,
,,,-00.016040000000,-144.00000,
,,,-00.016030000000,-144.00000,
,,,-00.016020000000,-152.00000,
,,,-00.016010000000,-152.00000,
,,,-00.016000000000,-152.00000,
,,,-00.015990000000,-152.00000,
,,,-00.015980000000,-152.00000,
,,,-00.015970000000,-160.00000,
,,,-00.015960000000,-152.00000,
,,,-00.015950000000,-160.00000,
,,,-00.015940000000,-160.00000,
,,,-00.015930000000,-160.00000,
,,,-00.015920000000,-160.00000,
,,,-00.015910000000,-160.00000,
,,,-00.015900000000,-160.00000,
,,,-00.015890000000,-160.00000,
,,,-00.015880000000,-168.00000,
,,,-00.015870000000,-168.00000,
,,,-00.015860000000,-168.00000,
,,,-00.015850000000,-168.00000,
,,,-00.015840000000,-168.00000,
,,,-00.015830000000,-168.00000,
,,,-00.015820000000,-168.00000,
,,,-00.015810000000,-168.00000,
,,,-00.015800000000,-168.00000,
,,,-00.015790000000,-176.00000,
,,,-00.015780000000,-176.00000,
,,,-00.015770000000,-176.00000,
,,,-00.015760000000,-176.00000,
,,,-00.015750000000,-176.00000,
,,,-00.015740000000,-184.00000,
,,,-00.015730000000,-176.00000,
,,,-00.015720000000,-176.00000,
,,,-00.015710000000,-184.00000,
,,,-00.015700000000,-176.00000,
,,,-00.015690000000,-176.00000,
,,,-00.015680000000,-184.00000,
,,,-00.015670000000,-192.00000,
,,,-00.015660000000,-184.00000,
,,,-00.015650000000,-192.00000,
,,,-00.015640000000,-192.00000,
,,,-00.015630000000,-192.00000,
,,,-00.015620000000,-192.00000,
,,,-00.015610000000,-192.00000,
,,,-00.015600000000,-192.00000,
,,,-00.015590000000,-200.00000,
,,,-00.015580000000,-200.00000,
,,,-00.015570000000,-192.00000,
,,,-00.015560000000,-200.00000,
,,,-00.015550000000,-200.00000,
,,,-00.015540000000,-200.00000,
,,,-00.015530000000,-208.00000,
,,,-00.015520000000,-200.00000,
,,,-00.015510000000,-208.00000,
,,,-00.015500000000,-200.00000,
,,,-00.015490000000,-208.00000,
,,,-00.015480000000,-208.00000,
,,,-00.015470000000,-208.00000,
,,,-00.015460000000,-208.00000,
,,,-00.015450000000,-208.00000,
,,,-00.015440000000,-208.00000,
,,,-00.015430000000,-216.00000,
,,,-00.015420000000,-216.00000,
,,,-00.015410000000,-216.00000,
,,,-00.015400000000,-216.00000,
,,,-00.015390000000,-216.00000,
,,,-00.015380000000,-216.00000,
,,,-00.015370000000,-216.00000,
,,,-00.015360000000,-216.00000,
,,,-00.015350000000,-216.00000,
,,,-00.015340000000,-224.00000,
,,,-00.015330000000,-224.00000,
,,,-00.015320000000,-224.00000,
,,,-00.015310000000,-224.00000,
,,,-00.015300000000,-224.00000,
,,,-00.015290000000,-224.00000,
,,,-00.015280000000,-224.00000,
,,,-00.015270000000,-232.00000,
,,,-00.015260000000,-232.00000,
,,,-00.015250000000,-232.00000,
,,,-00.015240000000,-232.00000,
,,,-00.015230000000,-232.00000,
,,,-00.015220000000,-240.00000,
,,,-00.015210000000, 408.00000,
,,,-00.015200000000, 552.00000,
,,,-00.015190000000, 552.00000,
,,,-00.015180000000, 552.00000,
,,,-00.015170000000, 552.00000,
,,,-00.015160000000, 552.00000,
,,,-00.015150000000, 552.00000,
,,,-00.015140000000, 552.00000,
,,,-00.015130000000, 544.00000,
,,,-00.015120000000, 544.00000,
,,,-00.015110000000, 544.00000,
,,,-00.015100000000, 544.00000,
,,,-00.015090000000, 544.00000,
,,,-00.015080000000, 536.00000,
,,,-00.015070000000, 544.00000,
,,,-00.015060000000, 544.00000,
,,,-00.015050000000, 536.00000,
,,,-00.015040000000, 536.00000,
,,,-00.015030000000, 536.00000,
,,,-00.015020000000, 536.00000,
,,,-00.015010000000, 536.00000,
,,,-00.015000000000, 536.00000,
,,,-00.014990000000, 536.00000,
,,,-00.014980000000, 528.00000,
,,,-00.014970000000, 528.00000,
,,,-00.014960000000, 528.00000,
,,,-00.014950000000, 528.00000,
,,,-00.014940000000, 528.00000,
,,,-00.014930000000, 528.00000,
,,,-00.014920000000, 528.00000,
,,,-00.014910000000, 528.00000,
,,,-00.014900000000, 520.00000,
,,,-00.014890000000, 520.00000,
,,,-00.014880000000, 520.00000,
,,,-00.014870000000, 520.00000,
,,,-00.014860000000, 520.00000,
,,,-00.014850000000, 520.00000,
,,,-00.014840000000, 520.00000,
,,,-00.014830000000, 512.00000,
,,,-00.014820000000, 512.00000,
,,,-00.014810000000, 504.00000,
,,,-00.014800000000, 504.00000,
,,,-00.014790000000, 504.00000,
,,,-00.014780000000, 504.00000,
,,,-00.014770000000, 504.00000,
,,,-00.014760000000, 504.00000,
,,,-00.014750000000, 496.00000,
,,,-00.014740000000, 496.00000,
,,,-00.014730000000, 496.00000,
,,,-00.014720000000, 496.00000,
,,,-00.014710000000, 496.00000,
,,,-00.014700000000, 496.00000,
,,,-00.014690000000, 496.00000,
,,,-00.014680000000, 488.00000,
,,,-00.014670000000, 488.00000,
,,,-00.014660000000, 488.00000,
,,,-00.014650000000, 488.00000,
,,,-00.014640000000, 480.00000,
,,,-00.014630000000, 480.00000,
,,,-00.014620000000, 480.00000,
,,,-00.014610000000, 480.00000,
,,,-00.014600000000,-152.00000,
,,,-00.014590000000,-312.00000,
,,,-00.014580000000,-312.00000,
,,,-00.014570000000,-312.00000,
,,,-00.014560000000,-312.00000,
,,,-00.014550000000,-320.00000,
,,,-00.014540000000,-320.00000,
,,,-00.014530000000,-320.00000,
,,,-00.014520000000,-320.00000,
,,,-00.014510000000,-320.00000,
,,,-00.014500000000,-328.00000,
,,,-00.014490000000,-328.00000,
,,,-00.014480000000,-328.00000,
,,,-00.014470000000,-328.00000,
,,,-00.014460000000,-328.00000,
,,,-00.014450000000,-328.00000,
,,,-00.014440000000,-336.00000,
,,,-00.014430000000,-336.00000,
,,,-00.014420000000,-336.00000,
,,,-00.014410000000,-336.00000,
,,,-00.014400000000,-336.00000,
,,,-00.014390000000,-336.00000,
,,,-00.014380000000,-336.00000,
,,,-00.014370000000,-344.00000,
,,,-00.014360000000,-336.00000,
,,,-00.014350000000,-344.00000,
,,,-00.014340000000,-344.00000,
,,,-00.014330000000,-344.00000,
,,,-00.014320000000,-344.00000,
,,,-00.014310000000,-344.00000,
,,,-00.014300000000,-344.00000,
,,,-00.014290000000,-352.00000,
,,,-00.014280000000,-352.00000,
,,,-00.014270000000,-352.00000,
,,,-00.014260000000,-352.00000,
,,,-00.014250000000,-352.00000,
,,,-00.014240000000,-352.00000,
,,,-00.014230000000,-352.00000,
,,,-00.014220000000,-360.00000,
,,,-00.014210000000,-352.00000,
,,,-00.014200000000,-352.00000,
,,,-00.014190000000,-352.00000,
,,,-00.014180000000,-360.00000,
,,,-00.014170000000,-360.00000,
,,,-00.014160000000,-360.00000,
,,,-00.014150000000,-320.00000,
,,,-00.014140000000, 376.00000,
,,,-00.014130000000, 424.00000,
,,,-00.014120000000, 432.00000,
,,,-00.014110000000, 424.00000,
,,,-00.014100000000, 424.00000,
,,,-00.014090000000, 432.00000,
,,,-00.014080000000, 424.00000,
,,,-00.014070000000, 424.00000,
,,,-00.014060000000, 424.00000,
,,,-00.014050000000, 408.00000,
,,,-00.014040000000, 416.00000,
,,,-00.014030000000, 408.00000,
,,,-00.014020000000, 416.00000,
,,,-00.014010000000, 408.00000,
,,,-00.014000000000, 408.00000,
,,,-00.013990000000, 408.00000,
,,,-00.013980000000, 408.00000,
,,,-00.013970000000, 408.00000,
,,,-00.013960000000, 408.00000,
,,,-00.013950000000, 400.00000,
,,,-00.013940000000, 408.00000,
,,,-00.013930000000, 400.00000,
,,,-00.013920000000, 400.00000,
,,,-00.013910000000, 400.00000,
,,,-00.013900000000, 392.00000,
,,,-00.013890000000, 400.00000,
,,,-00.013880000000, 392.00000,
,,,-00.013870000000, 392.00000,
,,,-00.013860000000, 392.00000,
,,,-00.013850000000, 392.00000,
,,,-00.013840000000, 392.00000,
,,,-00.013830000000, 392.00000,
,,,-00.013820000000, 384.00000,
,,,-00.013810000000, 392.00000,
,,,-00.013800000000, 384.00000,
,,,-00.013790000000, 384.00000,
,,,-00.013780000000, 384.00000,
,,,-00.013770000000, 384.00000,
,,,-00.013760000000, 384.00000,
,,,-00.013750000000, 384.00000,
,,,-00.013740000000, 384.00000,
,,,-00.013730000000, 376.00000,
,,,-00.013720000000, 376.00000,
,,,-00.013710000000, 376.00000,
,,,-00.013700000000, 376.00000,
,,,-00.013690000000, 376.00000,
,,,-00.013680000000, 376.00000,
,,,-00.013670000000,-280.00000,
,,,-00.013660000000,-416.00000,
,,,-00.013650000000,-424.00000,
,,,-00.013640000000,-424.00000,
,,,-00.013630000000,-432.00000,
,,,-00.013620000000,-424.00000,
,,,-00.013610000000,-424.00000,
,,,-00.013600000000,-432.00000,
,,,-00.013590000000,-424.00000,
,,,-00.013580000000,-432.00000,
,,,-00.013570000000,-432.00000,
,,,-00.013560000000,-440.00000,
,,,-00.013550000000,-432.00000,
,,,-00.013540000000,-432.00000,
,,,-00.013530000000,-440.00000,
,,,-00.013520000000,-440.00000,
,,,-00.013510000000,-440.00000,
,,,-00.013500000000,-440.00000,
,,,-00.013490000000,-440.00000,
,,,-00.013480000000,-440.00000,
,,,-00.013470000000,-448.00000,
,,,-00.013460000000,-448.00000,
,,,-00.013450000000,-448.00000,
,,,-00.013440000000,-456.00000,
,,,-00.013430000000,-448.00000,
,,,-00.013420000000,-456.00000,
,,,-00.013410000000,-456.00000,
,,,-00.013400000000,-456.00000,
,,,-00.013390000000,-456.00000,
,,,-00.013380000000,-456.00000,
,,,-00.013370000000,-456.00000,
,,,-00.013360000000,-464.00000,
,,,-00.013350000000,-456.00000,
,,,-00.013340000000,-456.00000,
,,,-00.013330000000,-464.00000,
,,,-00.013320000000,-456.00000,
,,,-00.013310000000,-464.00000,
,,,-00.013300000000,-464.00000,
,,,-00.013290000000,-472.00000,
,,,-00.013280000000,-464.00000,
,,,-00.013270000000,-464.00000,
,,,-00.013260000000,-472.00000,
,,,-00.013250000000,-472.00000,
,,,-00.013240000000,-472.00000,
,,,-00.013230000000,-472.00000,
,,,-00.013220000000,-472.00000,
,,,-00.013210000000,-472.00000,
,,,-00.013200000000,-480.00000,
,,,-00.013190000000,-480.00000,
,,,-00.013180000000,-472.00000,
,,,-00.013170000000,-480.00000,
,,,-00.013160000000,-472.00000,
,,,-00.013150000000,-480.00000,
,,,-00.013140000000,-480.00000,
,,,-00.013130000000,-480.00000,
,,,-00.013120000000,-480.00000,
,,,-00.013110000000,-480.00000,
,,,-00.013100000000,-480.00000,
,,,-00.013090000000,-488.00000,
,,,-00.013080000000,-488.00000,
,,,-00.013070000000,-488.00000,
,,,-00.013060000000, 136.00000,
,,,-00.013050000000, 296.00000,
,,,-00.013040000000, 296.00000,
,,,-00.013030000000, 296.00000,
,,,-00.013020000000, 296.00000,
,,,-00.013010000000, 296.00000,
,,,-00.013000000000, 296.00000,
,,,-00.012990000000, 296.00000,
,,,-00.012980000000, 296.00000,
,,,-00.012970000000, 288.00000,
,,,-00.012960000000, 296.00000,
,,,-00.012950000000, 296.00000,
,,,-00.012940000000, 288.00000,
,,,-00.012930000000, 288.00000,
,,,-00.012920000000, 288.00000,
,,,-00.012910000000, 288.00000,
,,,-00.012900000000, 288.00000,
,,,-00.012890000000, 280.00000,
,,,-00.012880000000, 280.00000,
,,,-00.012870000000, 280.00000,
,,,-00.012860000000, 288.00000,
,,,-00.012850000000, 288.00000,
,,,-00.012840000000, 280.00000,
,,,-00.012830000000, 280.00000,
,,,-00.012820000000, 280.00000,
,,,-00.012810000000, 280.00000,
,,,-00.012800000000, 280.00000,
,,,-00.012790000000, 272.00000,
,,,-00.012780000000, 280.00000,
,,,-00.012770000000, 280.00000,
,,,-00.012760000000, 272.00000,
,,,-00.012750000000, 272.00000,
,,,-00.012740000000, 272.00000,
,,,-00.012730000000, 264.00000,
,,,-00.012720000000, 264.00000,
,,,-00.012710000000, 264.00000,
,,,-00.012700000000, 264.00000,
,,,-00.012690000000, 256.00000,
,,,-00.012680000000, 264.00000,
,,,-00.012670000000, 256.00000,
,,,-00.012660000000, 264.00000,
